<?xml version="1.0" encoding="iso-8859-1" standalone="no"?> 
<!DOCTYPE svg PUBLIC "-//W3C//Dtd SVG 1.1//EN" "http://www.w3.org/Graphics/SVG/1.1/Dtd/svg11.dtd"> 
<svg width="1000" height="1000" version="1.1" xmlns="http://www.w3.org/2000/svg">
	<defs>
		<linearGradient id="myLinearGradient1"
		x1="0%" y1="0%"
		x2="0%" y2="100%"
			spreadMethod="pad">
				<stop offset="0%"   stop-color="#2f93c7" stop-opacity="1"/>
				<stop offset="40%"  stop-color="#3182b1" stop-opacity="1"/>
				<stop offset="100%" stop-color="#1f5e8a" stop-opacity="1"/>
			</linearGradient>
	</defs>
	<defs>
		<filter id="f1" x="0" y="0">
			<feGaussianBlur in="SourceGraphic" stdDeviation="5" />
		</filter>
	</defs>
	<rect x="10" y="10" rx="30" ry="30" width="980" height="980" style="stroke:#3182b1;fill:url(#myLinearGradient1);stroke-width:4;stroke-opacity:1;fill-opacity:0.9" />
	<text x="50" y="500" font-size="150" font-family="ubuntu" filter="url(#f1)" opacity="0.8" font-style="italic"> Black Player <tspan x="300" dy="150"> WINS </tspan>
</text>
	<text x="40" y="495" font-size="150" font-family="ubuntu" opacity="0.8" font-style="italic" style="stroke:black;fill:black;stroke-width:3"> Black Player <tspan x="300" dy="150"> WINS </tspan> </text>
</svg>