<?xml version="1.0" encoding="iso-8859-1" standalone="no"?> 
<!DOCTYPE svg PUBLIC "-//W3C//Dtd SVG 1.1//EN" "http://www.w3.org/Graphics/SVG/1.1/Dtd/svg11.dtd"> 
<svg width="100" height="100" version="1.1" xmlns="http://www.w3.org/2000/svg">
	<rect x="5" y="5" rx="15" ry="15" width="90" height="90" style="stroke:black;fill:black;stroke-width:2;stroke-opacity:0.8;fill-opacity:0.3" />
	<circle cx="50" cy="50" r="40" style = "fill:black; fill-opacity:0.8"/>
	<circle cx="50" cy="50" r="35" style = "stroke:white; stroke-width: 2; stroke-opacity:0.5; fill-opacity:0"/>
	<circle cx="50" cy="50" r="28" style = "stroke:white; stroke-width:5; stroke-opacity:0.5; fill-opacity:0"/>
	<circle cx="50" cy="50" r="21" style = "stroke:white; stroke-width: 2; stroke-opacity:0.5; fill-opacity:0"/>
</svg>